Presentes
…
Nos interesa explorar la variable ocupaciones.

victimas_parque %>% 
  group_by(ocupaciones) %>% 
  summarise(cant_ocupaciones = n()) %>% 
  arrange(desc(cant_ocupaciones)) %>% 
  rename("Ocupaciones" = ocupaciones, "Víctimas" = cant_ocupaciones)

## # A tibble: 3,438 × 2
##    Ocupaciones              Víctimas
##    <chr>                       <int>
##  1 <NA>                         2777
##  2 Estudiante Universitario      577
##  3 Estudiante Universitaria      329
##  4 Estudiante                    138
##  5 Estudiante Secundario          98
##  6 Comerciante                    93
##  7 Abogado                        63
##  8 Albañil                        58
##  9 Jornalero                      55
## 10 Obrero                         51
## # … with 3,428 more rows

También exploramos por edad y ocupaciones de las víctimas.

victimas_parque %>%
  filter(!is.na(ocupaciones)) %>% 
  group_by(ocupaciones, edad) %>% 
  summarise(cantidad = n()) %>% 
  arrange(desc(cantidad))%>% 
  rename("Edad" = edad, "Ocupaciones" = ocupaciones, "Víctimas" = cantidad )

## # A tibble: 4,493 × 3
## # Groups:   Ocupaciones [3,437]
##    Ocupaciones              Edad  Víctimas
##    <chr>                    <chr>    <int>
##  1 Estudiante Universitario 22          89
##  2 Estudiante Universitario 23          69
##  3 Estudiante Universitario 24          67
##  4 Estudiante Universitario 21          66
##  5 Estudiante Universitaria 22          51
##  6 Estudiante Universitario 25          47
##  7 Estudiante Universitario 20          46
##  8 Estudiante Universitaria 21          43
##  9 Estudiante Universitario 26          43
## 10 Estudiante Universitaria 24          42
## # … with 4,483 more rows
…
Cruzamos la cantidad de víctimas por edad y año de secuestro o
asesinato.

victimas_parque %>% 
  group_by(fecha_de_secuestro) %>% 
  mutate(fecha = dmy(fecha_de_secuestro)) %>% 
  mutate(anio = year(fecha)) %>% 
  group_by(edad, anio) %>% 
  summarise(victimas_por_anio = n()) %>% 
  arrange(desc(victimas_por_anio)) %>% 
  rename("Edad" = edad, "Año de secuestro/asesinato" = anio, "Víctimas" = victimas_por_anio )

## # A tibble: 421 × 3
## # Groups:   Edad [69]
##    Edad  `Año de secuestro/asesinato` Víctimas
##    <chr>                        <dbl>    <int>
##  1 22                            1976      255
##  2 21                            1976      233
##  3 23                            1976      228
##  4 24                            1976      221
##  5 25                            1976      199
##  6 22                            1977      197
##  7 27                            1976      194
##  8 24                            1977      187
##  9 23                            1977      171
## 10 26                            1976      169
## # … with 411 more rows

Buscamos victimas por edad, año de secuestro y ocupación, dejando de
lado la variable sexo.

victimas_parque %>% 
  group_by(fecha_de_secuestro) %>% 
  mutate(fecha = dmy(fecha_de_secuestro)) %>% 
  mutate(anio = year(fecha)) %>% 
  group_by(anio, edad, ocupaciones) %>% 
  filter(!is.na(ocupaciones)) %>% 
  summarise(victimas_por_anio = n()) %>% 
  arrange(desc(victimas_por_anio)) %>% 
  rename("Edad" = edad, "Año de secuestro/asesinato" = anio, "Ocupaciones" = ocupaciones, "Víctimas" = victimas_por_anio)

## # A tibble: 4,923 × 4
## # Groups:   Año de secuestro/asesinato, Edad [361]
##    `Año de secuestro/asesinato` Edad  Ocupaciones              Víctimas
##                           <dbl> <chr> <chr>                       <int>
##  1                         1976 22    Estudiante Universitario       37
##  2                         1977 22    Estudiante Universitario       35
##  3                         1976 21    Estudiante Universitario       32
##  4                         1976 24    Estudiante Universitario       31
##  5                         1976 23    Estudiante Universitario       27
##  6                         1977 22    Estudiante Universitaria       23
##  7                         1977 23    Estudiante Universitario       23
##  8                         1976 21    Estudiante Universitaria       21
##  9                         1976 20    Estudiante Universitario       20
## 10                         1976 25    Estudiante Universitario       20
## # … with 4,913 more rows
…
    27
514

Nos pareció interesante conocer los espacios de militancia de las
víctimas.

militancias <- unnest(victimas_parque, militancia) %>% 
  separate(listado, into = c("orga1", "orga2", "orga3", "orga4"), sep =" - ")

 militancias %>% 
  group_by(orga1, orga2, orga3, orga4) %>% 
  summarise(cant_por_militancia = n()) %>% 
  arrange(desc(cant_por_militancia)) 

## # A tibble: 413 × 5
## # Groups:   orga1, orga2, orga3 [413]
##    orga1                                            orga2    orga3 orga4 cant_…¹
##    <chr>                                            <chr>    <chr> <chr>   <int>
##  1 Montoneros                                       <NA>     <NA>  <NA>      903
##  2 Partido Revolucionario de los Trabajadores       Ejércit… <NA>  <NA>      429
##  3 Juventud Peronista (JP)                          <NA>     <NA>  <NA>      396
##  4 Juventud Universitaria Peronista (JUP)           <NA>     <NA>  <NA>      278
##  5 Militante sindical                               <NA>     <NA>  <NA>      182
##  6 Partido Comunista Marxista Leninista (PCML)      <NA>     <NA>  <NA>      133
##  7 Partido Revolucionario de los Trabajadores (PRT) <NA>     <NA>  <NA>      129
##  8 Ejército Revolucionario del Pueblo (ERP)         <NA>     <NA>  <NA>      108
##  9 Partido Comunista (PC)                           <NA>     <NA>  <NA>      105
## 10 Partido Socialista de los Trabajadores (PST)     <NA>     <NA>  <NA>       99
## # … with 403 more rows, and abbreviated variable name ¹​cant_por_militancia

Exploramos la cantidad de víctimas por espacio de militancia y
año.

militancias %>%  
  mutate(fecha = dmy(fecha_de_secuestro)) %>% 
  mutate(anio = year(fecha)) %>% 
  group_by(anio, orga1, orga2, orga3, orga4) %>% 
  summarise(cant_por_militancia = n()) %>% 
  arrange(desc(cant_por_militancia)) 

## # A tibble: 655 × 6
## # Groups:   anio, orga1, orga2, orga3 [655]
##     anio orga1                                      orga2    orga3 orga4 cant_…¹
##    <dbl> <chr>                                      <chr>    <chr> <chr>   <int>
##  1  1977 Montoneros                                 <NA>     <NA>  <NA>      322
##  2  1976 Montoneros                                 <NA>     <NA>  <NA>      220
##  3    NA Montoneros                                 <NA>     <NA>  <NA>      208
##  4  1976 Partido Revolucionario de los Trabajadores Ejércit… <NA>  <NA>      171
##  5  1976 Juventud Peronista (JP)                    <NA>     <NA>  <NA>      154
##  6  1977 Juventud Peronista (JP)                    <NA>     <NA>  <NA>      147
##  7  1977 Juventud Universitaria Peronista (JUP)     <NA>     <NA>  <NA>      123
##  8    NA Partido Revolucionario de los Trabajadores Ejércit… <NA>  <NA>      119
##  9  1976 Militante sindical                         <NA>     <NA>  <NA>       87
## 10  1978 Montoneros                                 <NA>     <NA>  <NA>       80
## # … with 645 more rows, and abbreviated variable name ¹​cant_por_militancia

Cruzamos la cantidad de víctimas por espacios de militancia y sus
ocupaciones.

militancias %>%  
  mutate(fecha = dmy(fecha_de_secuestro)) %>% 
  mutate(anio = year(fecha)) %>% 
  group_by(ocupaciones, orga1, orga2, orga3, orga4) %>% 
  summarise(cant_por_militancia = n()) %>% 
  arrange(desc(cant_por_militancia)) 

## # A tibble: 2,568 × 6
## # Groups:   ocupaciones, orga1, orga2, orga3 [2,568]
##    ocupaciones              orga1                      orga2 orga3 orga4 cant_…¹
##    <chr>                    <chr>                      <chr> <chr> <chr>   <int>
##  1 <NA>                     Montoneros                 <NA>  <NA>  <NA>      275
##  2 <NA>                     Partido Revolucionario de… Ejér… <NA>  <NA>      151
##  3 Estudiante Universitario Juventud Universitaria Pe… <NA>  <NA>  <NA>       90
##  4 <NA>                     Juventud Peronista (JP)    <NA>  <NA>  <NA>       88
##  5 Estudiante Universitario Montoneros                 <NA>  <NA>  <NA>       78
##  6 Estudiante Universitaria Montoneros                 <NA>  <NA>  <NA>       73
##  7 Estudiante Universitaria Juventud Universitaria Pe… <NA>  <NA>  <NA>       43
##  8 <NA>                     Ejército Revolucionario d… <NA>  <NA>  <NA>       37
##  9 Estudiante Universitaria Partido Revolucionario de… Ejér… <NA>  <NA>       35
## 10 Estudiante Universitario Juventud Peronista (JP)    <NA>  <NA>  <NA>       31
## # … with 2,558 more rows, and abbreviated variable name ¹​cant_por_militancia

Buscamos cuáles son los espacios de militancia para la ocupación de
Estudiantes.

militancias %>% 
  mutate(fecha = dmy(fecha_de_secuestro)) %>% 
  mutate(anio = year(fecha)) %>% 
  group_by(ocupaciones, orga1, orga2, orga3, orga4) %>% 
  filter(ocupaciones %in% c("Estudiante Universitario", "Estudiante Universitaria", "Estudiante", "Estudiante Secundario")) %>% 
  summarise(cant_por_militancia = n()) %>% 
  arrange(desc(cant_por_militancia))

## # A tibble: 124 × 6
## # Groups:   ocupaciones, orga1, orga2, orga3 [124]
##    ocupaciones              orga1                      orga2 orga3 orga4 cant_…¹
##    <chr>                    <chr>                      <chr> <chr> <chr>   <int>
##  1 Estudiante Universitario Juventud Universitaria Pe… <NA>  <NA>  <NA>       90
##  2 Estudiante Universitario Montoneros                 <NA>  <NA>  <NA>       78
##  3 Estudiante Universitaria Montoneros                 <NA>  <NA>  <NA>       73
##  4 Estudiante Universitaria Juventud Universitaria Pe… <NA>  <NA>  <NA>       43
##  5 Estudiante Universitaria Partido Revolucionario de… Ejér… <NA>  <NA>       35
##  6 Estudiante Universitario Juventud Peronista (JP)    <NA>  <NA>  <NA>       31
##  7 Estudiante Secundario    Unión de Estudiantes Secu… <NA>  <NA>  <NA>       24
##  8 Estudiante Universitario Partido Revolucionario de… Ejér… <NA>  <NA>       23
##  9 Estudiante               Montoneros                 <NA>  <NA>  <NA>       14
## 10 Estudiante Universitario Federación Juvenil Comuni… <NA>  <NA>  <NA>       13
## # … with 114 more rows, and abbreviated variable name ¹​cant_por_militancia
También queremos conocer los lugares en que ocurrieron los secuestros
o detenciones de las víctimas.

victimas_parque %>% 
  group_by(fecha_de_secuestro) %>% 
  mutate(fecha = dmy(fecha_de_secuestro)) %>% 
  mutate(anio = year(fecha)) %>% 
  filter(anio %in% c(1976:1982)) %>% 
  group_by(lugar_de_secuestro) %>% 
  filter(!is.na(lugar_de_secuestro)) %>% 
  summarise(cantidad_lugar = n()) %>% 
  arrange(desc(cantidad_lugar)) %>% 
  rename("Lugar de secuestro" = lugar_de_secuestro, "Víctimas" = cantidad_lugar)

## # A tibble: 1,348 × 2
##    `Lugar de secuestro`   Víctimas
##    <chr>                     <int>
##  1 CAPITAL FEDERAL            1302
##  2 LA PLATA. BS. AS.           424
##  3 CORDOBA CAPITAL             288
##  4 SAN MIGUEL DE TUCUMAN       194
##  5 ROSARIO. SANTA FE           186
##  6 MAR DEL PLATA. BS. AS.      181
##  7 BUENOS AIRES                148
##  8 CORDOBA                     120
##  9 LANUS. BS. AS.               65
## 10 AVELLANEDA. BS. AS.          55
## # … with 1,338 more rows
Cruzamos los lugares de secuestro con las ocupaciones y la edad de
las víctimas.

victimas_parque %>% 
  group_by(fecha_de_secuestro) %>% 
  mutate(fecha = dmy(fecha_de_secuestro)) %>% 
  mutate(anio = year(fecha)) %>% 
  filter(anio %in% c(1976:1982)) %>%
  filter(!is.na(lugar_de_secuestro)) %>% 
  group_by(lugar_de_secuestro, ocupaciones, edad) %>%
  summarise(cantidad_lugar = n()) %>% 
  arrange(desc(cantidad_lugar)) %>% 
  rename("Lugar de secuestro" = lugar_de_secuestro, "Ocupaciones" = ocupaciones, "Edad" = edad, "Víctimas" = cantidad_lugar)

## # A tibble: 5,795 × 4
## # Groups:   Lugar de secuestro, Ocupaciones [4,651]
##    `Lugar de secuestro` Ocupaciones              Edad  Víctimas
##    <chr>                <chr>                    <chr>    <int>
##  1 CAPITAL FEDERAL      <NA>                     27          20
##  2 LA PLATA. BS. AS.    Estudiante Universitario 22          20
##  3 CAPITAL FEDERAL      Estudiante Universitario 22          18
##  4 CAPITAL FEDERAL      <NA>                     24          17
##  5 CAPITAL FEDERAL      <NA>                     21          16
##  6 CAPITAL FEDERAL      <NA>                     25          16
##  7 CAPITAL FEDERAL      Estudiante Universitario 21          15
##  8 CAPITAL FEDERAL      Estudiante Universitario 23          13
##  9 CAPITAL FEDERAL      <NA>                     19          13
## 10 CAPITAL FEDERAL      <NA>                     22          13
## # … with 5,785 more rows
…
victimas_parque %>% 
  group_by(fecha_de_secuestro) %>% 
  mutate(fecha = dmy(fecha_de_secuestro)) %>% 
  mutate(anio = year(fecha)) %>% 
  filter(anio %in% c(1976:1982)) %>%
  filter(!is.na(lugar_de_secuestro)) %>% 
  group_by(lugar_de_secuestro, ocupaciones) %>%
  filter(lugar_de_secuestro == "MAR DEL PLATA. BS. AS.") %>% 
  summarise(cantidad_lugar = n()) %>% 
  arrange(desc(cantidad_lugar)) %>% 
  rename("Lugar de secuestro" = lugar_de_secuestro, "Ocupaciones" = ocupaciones, "Víctimas" = cantidad_lugar) 

## # A tibble: 107 × 3
## # Groups:   Lugar de secuestro [1]
##    `Lugar de secuestro`   Ocupaciones               Víctimas
##    <chr>                  <chr>                        <int>
##  1 MAR DEL PLATA. BS. AS. <NA>                            48
##  2 MAR DEL PLATA. BS. AS. Estudiante Universitaria        10
##  3 MAR DEL PLATA. BS. AS. Estudiante Universitario         9
##  4 MAR DEL PLATA. BS. AS. Albañil                          3
##  5 MAR DEL PLATA. BS. AS. Empleado                         3
##  6 MAR DEL PLATA. BS. AS. Estudiante                       3
##  7 MAR DEL PLATA. BS. AS. Abogado                          2
##  8 MAR DEL PLATA. BS. AS. Comerciante                      2
##  9 MAR DEL PLATA. BS. AS. Obrero                           2
## 10 MAR DEL PLATA. BS. AS. Obrero De La Construcción        2
## # … with 97 more rows
…
filtro_ms %>% 
  filter(anio %in% c(1976:1982)) %>% 
  group_by(anio, orga1, sindicato) %>% 
  filter(sindicato == "sindicalista") %>% 
  summarise(n = n()) %>% 
  mutate(prop = n/sum(n))

## # A tibble: 204 × 5
## # Groups:   anio, orga1 [204]
##     anio orga1                                               sindi…¹     n  prop
##    <dbl> <chr>                                               <chr>   <int> <dbl>
##  1  1976 Acción Sindical Argentina (ASA)                     sindic…     3     1
##  2  1976 Act Gremial Udba                                    sindic…     1     1
##  3  1976 Activista Gremial En Ingenio Consepción             sindic…     1     1
##  4  1976 Activista Sindical                                  sindic…     1     1
##  5  1976 Adep, Militante Gremial.                            sindic…     1     1
##  6  1976 Agrup Gremial Peronista                             sindic…     1     1
##  7  1976 Asociación de Trabajadores de la Universidad Nacio… sindic…     2     1
##  8  1976 Asociacion Tecnicos y Empleados de Proteccion y Se… sindic…     1     1
##  9  1976 Asociación Trabajadores del Estado (ATE)            sindic…     2     1
## 10  1976 Confederación de Trabajadores de la Educación de l… sindic…     6     1
## # … with 194 more rows, and abbreviated variable name ¹​sindicato
…
filtro_lugar %>% 
  filter(lugar_de_secuestro == "MAR DEL PLATA. BS. AS.") %>% 
  group_by(lugar_de_secuestro,orga1) %>% 
  summarise(n = n()) %>% 
  arrange(desc(n))

## # A tibble: 22 × 3
## # Groups:   lugar_de_secuestro [1]
##    lugar_de_secuestro     orga1                                            n
##    <chr>                  <chr>                                        <int>
##  1 MAR DEL PLATA. BS. AS. Juventud Universitaria Peronista (JUP)           3
##  2 MAR DEL PLATA. BS. AS. Montoneros                                       3
##  3 MAR DEL PLATA. BS. AS. Partido Comunista Marxista Leninista (PCML)      3
##  4 MAR DEL PLATA. BS. AS. Partido Socialista de los Trabajadores (PST)     3
##  5 MAR DEL PLATA. BS. AS. Juventud Peronista (JP)                          2
##  6 MAR DEL PLATA. BS. AS. Peronista                                        2
##  7 MAR DEL PLATA. BS. AS. Ejército Revolucionario del Pueblo (ERP)         1
##  8 MAR DEL PLATA. BS. AS. Gremio Peronista                                 1
##  9 MAR DEL PLATA. BS. AS. Juventud de Trabajadores Peronistas (JTP)        1
## 10 MAR DEL PLATA. BS. AS. Marxista Leninista                               1
## # … with 12 more rows
…
victimas_parque %>% 
  group_by(ocupaciones) %>% 
  filter(!is.na(ocupaciones)) %>% 
  summarise(proporcion_ocupacion = n()/nrow(.)) %>% 
  arrange(desc(proporcion_ocupacion)) %>% 
  mutate(proporcion_ocupacion = scales::percent(proporcion_ocupacion)) 

## # A tibble: 3,437 × 2
##    ocupaciones              proporcion_ocupacion
##    <chr>                    <chr>               
##  1 Estudiante Universitario 9.659%              
##  2 Estudiante Universitaria 5.507%              
##  3 Estudiante               2.310%              
##  4 Estudiante Secundario    1.640%              
##  5 Comerciante              1.557%              
##  6 Abogado                  1.055%              
##  7 Albañil                  0.971%              
##  8 Jornalero                0.921%              
##  9 Obrero                   0.854%              
## 10 Obrero Metalúrgico       0.686%              
## # … with 3,427 more rows
